Missing Data
…
fit1 <-with(imp, expr=lm(chl~age +bmi +hyp))
summary(fit1)

## # A tibble: 25 x 5
##    term        estimate std.error statistic  p.value
##    <chr>          <dbl>     <dbl>     <dbl>    <dbl>
##  1 (Intercept)   -22.0      47.8     -0.461 0.650   
##  2 age40-59       44.0      14.2      3.11  0.00554 
##  3 age60-99       70.2      16.7      4.20  0.000440
##  4 bmi             6.98      1.69     4.13  0.000514
##  5 hypyes         16.4      14.0      1.17  0.254   
##  6 (Intercept)   -17.4      52.9     -0.329 0.745   
##  7 age40-59       61.5      17.1      3.59  0.00182 
##  8 age60-99       83.2      21.3      3.90  0.000885
##  9 bmi             6.50      1.82     3.56  0.00195 
## 10 hypyes        -22.5      17.6     -1.28  0.217   
## #  with 15 more rows
…
